%YAML 1.1
%TAG !u! tag:unity3d.com,2011:
--- !u!74 &7400000
AnimationClip:
  m_ObjectHideFlags: 0
  m_PrefabParentObject: {fileID: 0}
  m_PrefabInternal: {fileID: 0}
  m_Name: Goku_Mash
  serializedVersion: 4
  m_AnimationType: 2
  m_Compressed: 0
  m_UseHighQualityCurve: 1
  m_RotationCurves: []
  m_CompressedRotationCurves: []
  m_PositionCurves: []
  m_ScaleCurves: []
  m_FloatCurves: []
  m_PPtrCurves:
  - curve:
    - time: 0
      value: {fileID: 21300016, guid: ef87b31ca00ce584085e35f2ef35a730, type: 3}
    - time: .0333333351
      value: {fileID: 21300016, guid: ef87b31ca00ce584085e35f2ef35a730, type: 3}
    - time: .0500000007
      value: {fileID: 21300016, guid: ef87b31ca00ce584085e35f2ef35a730, type: 3}
    - time: .0833333358
      value: {fileID: 21300014, guid: ef87b31ca00ce584085e35f2ef35a730, type: 3}
    - time: .100000001
      value: {fileID: 21300014, guid: ef87b31ca00ce584085e35f2ef35a730, type: 3}
    - time: .13333334
      value: {fileID: 21300014, guid: ef87b31ca00ce584085e35f2ef35a730, type: 3}
    - time: .166666672
      value: {fileID: 21300012, guid: ef87b31ca00ce584085e35f2ef35a730, type: 3}
    - time: .200000003
      value: {fileID: 21300012, guid: ef87b31ca00ce584085e35f2ef35a730, type: 3}
    - time: .216666669
      value: {fileID: 21300012, guid: ef87b31ca00ce584085e35f2ef35a730, type: 3}
    - time: .233333334
      value: {fileID: 21300012, guid: ef87b31ca00ce584085e35f2ef35a730, type: 3}
    - time: .25
      value: {fileID: 21300020, guid: ef87b31ca00ce584085e35f2ef35a730, type: 3}
    - time: .300000012
      value: {fileID: 21300020, guid: ef87b31ca00ce584085e35f2ef35a730, type: 3}
    - time: .349999994
      value: {fileID: 21300136, guid: ef87b31ca00ce584085e35f2ef35a730, type: 3}
    - time: .383333325
      value: {fileID: 21300136, guid: ef87b31ca00ce584085e35f2ef35a730, type: 3}
    - time: .416666657
      value: {fileID: 21300136, guid: ef87b31ca00ce584085e35f2ef35a730, type: 3}
    - time: .449999988
      value: {fileID: 21300186, guid: ef87b31ca00ce584085e35f2ef35a730, type: 3}
    - time: .5
      value: {fileID: 21300186, guid: ef87b31ca00ce584085e35f2ef35a730, type: 3}
    - time: .550000012
      value: {fileID: 21300188, guid: ef87b31ca00ce584085e35f2ef35a730, type: 3}
    - time: .583333313
      value: {fileID: 21300188, guid: ef87b31ca00ce584085e35f2ef35a730, type: 3}
    - time: .616666675
      value: {fileID: 21300188, guid: ef87b31ca00ce584085e35f2ef35a730, type: 3}
    - time: .649999976
      value: {fileID: 21300188, guid: ef87b31ca00ce584085e35f2ef35a730, type: 3}
    - time: .683333337
      value: {fileID: 21300188, guid: ef87b31ca00ce584085e35f2ef35a730, type: 3}
    - time: .716666639
      value: {fileID: 21300188, guid: ef87b31ca00ce584085e35f2ef35a730, type: 3}
    - time: .75
      value: {fileID: 21300194, guid: ef87b31ca00ce584085e35f2ef35a730, type: 3}
    - time: .783333361
      value: {fileID: 21300194, guid: ef87b31ca00ce584085e35f2ef35a730, type: 3}
    - time: .816666663
      value: {fileID: 21300194, guid: ef87b31ca00ce584085e35f2ef35a730, type: 3}
    - time: .850000024
      value: {fileID: 21300194, guid: ef87b31ca00ce584085e35f2ef35a730, type: 3}
    attribute: m_Sprite
    path: 
    classID: 212
    script: {fileID: 0}
  m_SampleRate: 60
  m_WrapMode: 0
  m_Bounds:
    m_Center: {x: 0, y: 0, z: 0}
    m_Extent: {x: 0, y: 0, z: 0}
  m_ClipBindingConstant:
    genericBindings:
    - path: 0
      attribute: 0
      script: {fileID: 0}
      classID: 212
      customType: 23
      isPPtrCurve: 1
    pptrCurveMapping:
    - {fileID: 21300016, guid: ef87b31ca00ce584085e35f2ef35a730, type: 3}
    - {fileID: 21300016, guid: ef87b31ca00ce584085e35f2ef35a730, type: 3}
    - {fileID: 21300016, guid: ef87b31ca00ce584085e35f2ef35a730, type: 3}
    - {fileID: 21300014, guid: ef87b31ca00ce584085e35f2ef35a730, type: 3}
    - {fileID: 21300014, guid: ef87b31ca00ce584085e35f2ef35a730, type: 3}
    - {fileID: 21300014, guid: ef87b31ca00ce584085e35f2ef35a730, type: 3}
    - {fileID: 21300012, guid: ef87b31ca00ce584085e35f2ef35a730, type: 3}
    - {fileID: 21300012, guid: ef87b31ca00ce584085e35f2ef35a730, type: 3}
    - {fileID: 21300012, guid: ef87b31ca00ce584085e35f2ef35a730, type: 3}
    - {fileID: 21300012, guid: ef87b31ca00ce584085e35f2ef35a730, type: 3}
    - {fileID: 21300020, guid: ef87b31ca00ce584085e35f2ef35a730, type: 3}
    - {fileID: 21300020, guid: ef87b31ca00ce584085e35f2ef35a730, type: 3}
    - {fileID: 21300136, guid: ef87b31ca00ce584085e35f2ef35a730, type: 3}
    - {fileID: 21300136, guid: ef87b31ca00ce584085e35f2ef35a730, type: 3}
    - {fileID: 21300136, guid: ef87b31ca00ce584085e35f2ef35a730, type: 3}
    - {fileID: 21300186, guid: ef87b31ca00ce584085e35f2ef35a730, type: 3}
    - {fileID: 21300186, guid: ef87b31ca00ce584085e35f2ef35a730, type: 3}
    - {fileID: 21300188, guid: ef87b31ca00ce584085e35f2ef35a730, type: 3}
    - {fileID: 21300188, guid: ef87b31ca00ce584085e35f2ef35a730, type: 3}
    - {fileID: 21300188, guid: ef87b31ca00ce584085e35f2ef35a730, type: 3}
    - {fileID: 21300188, guid: ef87b31ca00ce584085e35f2ef35a730, type: 3}
    - {fileID: 21300188, guid: ef87b31ca00ce584085e35f2ef35a730, type: 3}
    - {fileID: 21300188, guid: ef87b31ca00ce584085e35f2ef35a730, type: 3}
    - {fileID: 21300194, guid: ef87b31ca00ce584085e35f2ef35a730, type: 3}
    - {fileID: 21300194, guid: ef87b31ca00ce584085e35f2ef35a730, type: 3}
    - {fileID: 21300194, guid: ef87b31ca00ce584085e35f2ef35a730, type: 3}
    - {fileID: 21300194, guid: ef87b31ca00ce584085e35f2ef35a730, type: 3}
  m_AnimationClipSettings:
    serializedVersion: 2
    m_StartTime: 0
    m_StopTime: .866666675
    m_OrientationOffsetY: 0
    m_Level: 0
    m_CycleOffset: 0
    m_LoopTime: 1
    m_LoopBlend: 0
    m_LoopBlendOrientation: 0
    m_LoopBlendPositionY: 0
    m_LoopBlendPositionXZ: 0
    m_KeepOriginalOrientation: 0
    m_KeepOriginalPositionY: 1
    m_KeepOriginalPositionXZ: 0
    m_HeightFromFeet: 0
    m_Mirror: 0
  m_EditorCurves: []
  m_EulerEditorCurves: []
  m_Events: []
